<?xml version="1.0" encoding="UTF-8" standalone="no"?>
<!-- Created with Inkscape (http://www.inkscape.org/) -->

<svg
   width="32"
   height="32"
   viewBox="0 0 32 32"
   version="1.1"
   id="svg5"
   inkscape:version="1.2.2 (b0a8486541, 2022-12-01)"
   sodipodi:docname="text.svg"
   xmlns:inkscape="http://www.inkscape.org/namespaces/inkscape"
   xmlns:sodipodi="http://sodipodi.sourceforge.net/DTD/sodipodi-0.dtd"
   xmlns="http://www.w3.org/2000/svg"
   xmlns:svg="http://www.w3.org/2000/svg">
  <sodipodi:namedview
     id="namedview7"
     pagecolor="#ffffff"
     bordercolor="#000000"
     borderopacity="0.25"
     inkscape:showpageshadow="2"
     inkscape:pageopacity="0.0"
     inkscape:pagecheckerboard="0"
     inkscape:deskcolor="#d1d1d1"
     inkscape:document-units="px"
     showgrid="false"
     inkscape:zoom="13.4"
     inkscape:cx="7.0522388"
     inkscape:cy="18.134328"
     inkscape:window-width="1366"
     inkscape:window-height="699"
     inkscape:window-x="0"
     inkscape:window-y="32"
     inkscape:window-maximized="1"
     inkscape:current-layer="layer1" />
  <defs
     id="defs2">
    <rect
       x="1.9533983"
       y="2.0890501"
       width="28.334742"
       height="26.700582"
       id="rect908" />
    <inkscape:perspective
       sodipodi:type="inkscape:persp3d"
       inkscape:vp_x="8.8973708 : 24.5196 : 1"
       inkscape:vp_y="430.24925 : 1082.7552 : 0"
       inkscape:vp_z="44.393341 : 11.080461 : 1"
       inkscape:persp3d-origin="24.350698 : 12.025338 : 1"
       id="perspective745" />
  </defs>
  <g
     inkscape:label="Layer 1"
     inkscape:groupmode="layer"
     id="layer1">
    <rect
       style="fill:#000000"
       id="rect332"
       width="0.70290619"
       height="0"
       x="6.0621028"
       y="28.639395" />
    <ellipse
       style="fill:#000000;stroke-width:1.30118"
       id="path1102"
       cx="16.024223"
       cy="4.9672866"
       rx="13.595953"
       ry="1.9691855" />
    <rect
       style="fill:#000000"
       id="rect1104"
       width="3.4136007"
       height="23.347651"
       x="14.680271"
       y="5.1514444" />
  </g>
</svg>
